<?xml version="1.0" encoding="UTF-8"?>
<!DOCTYPE suite SYSTEM "http://testng.org/testng-1.0.dtd">
<suite verbose="0" name="Failed suite [Command line suite]">
  <test name="Command line test(failed)" preserve-order="false">
    <classes>
      <class name="org.sher.wtpractice.TransactionTest">
        <methods>
          <include name="update"/>
          <include name="save"/>
          <include name="delete"/>
        </methods>
      </class>
    </classes>
  </test>
</suite>
